[
    {
        "name": "A",
        "vertices": ["C", "G"]
    },
    {
        "name": "B",
        "vertices": ["C", "D"]
    },
    {
        "name": "C",
        "vertices": ["A", "B", "G"]
    },
    {
        "name": "D",
        "vertices": ["B", "E", "F"]
    },
    {
        "name": "E",
        "vertices": ["D", "F"]
    },
    {
        "name": "F",
        "vertices": ["D", "E"]
    },
    {
        "name": "G",
        "vertices": ["A", "C"]
    }
]
